NOMBRE,nombre_corto
Alto Golfo de California y Delta del Río Colorado,Alto Golfo de California [...]
Arrecife de Puerto Morelos,Arrecife de Puerto Morelos
Arrecifes de Cozumel,Arrecifes de Cozumel
Arrecifes de Sian Ka'an,Arrecifes de Sian Ka'an
Arrecifes de Xcalak,Arrecifes de Xcalak
Bahía de Loreto,Bahía de Loreto
Bala'an K'aax,Bala'an K'aax
Balandra,Balandra
Banco Chinchorro,Banco Chinchorro
Barranca del Cupatitzio,Barranca del Cupatitzio
Barranca de Metztitlán,Barranca de Metztitlán
Bavispe,Bavispe
Benito Juárez,Benito Juárez
Bonampak,Bonampak
Boquerón de Tonalá,Boquerón de Tonalá
Bosencheve,Bosencheve
Cabo Pulmo,Cabo Pulmo
Cabo San Lucas,Cabo San Lucas
C.A.D.N.R. 001 Pabellón,Pabellón
C.A.D.N.R. 004 Don Martín,Don Martín
C.A.D.N.R. 026 Bajo Río San Juan,Bajo Río San Juan
C.A.D.N.R. 043 Estado de Nayarit,CADNR Nayarit
Calakmul,Calakmul
Campo Verde,Campo Verde
Cañón del Río Blanco,Cañón del Río Blanco
Cañón del Sumidero,Cañón del Sumidero
Cañón del Usumacinta,Cañón del Usumacinta
Cañón de Santa Elena,Cañón de Santa Elena
Caribe Mexicano,Caribe Mexicano
Cascada de Bassaseachic,Cascada de Bassaseachic
Cerro de Garnica,Cerro de Garnica
Cerro de la Silla,Cerro de la Silla
Cerro Mohinora,Cerro Mohinora
Chamela-Cuixmala,Chamela-Cuixmala
Chan-Kin,Chan-Kin
Ciénegas del Lerma,Ciénegas del Lerma
Cofre de Perote o Nauhcampatépetl,Cofre de Perote
Complejo Lagunar Ojo de Liebre,C Lagunar Ojo de Liebre
Constitución de 1857,Constitución de 1857
Corredor Biológico Chichinautzin,CB Chichinautzin
"Costa Occ. de I. Mujeres, Pta. Cancún y Pta. Nizuc",Costa Occ de I Mujeres […]
Cuatrociénegas,Cuatrociénegas
Cumbres del Ajusco,Cumbres del Ajusco
Cumbres de Majalca,Cumbres de Majalca
Cumbres de Monterrey,Cumbres de Monterrey
Desierto del Carmen o de Nixcongo,Desierto del Carmen
Desierto de los Leones,Desierto de los Leones
El Chico,El Chico
El Jabalí,El Jabalí
El Pinacate y Gran Desierto de Altar,El Pinacate […]
El Potosí,El Potosí
El Tepozteco,El Tepozteco
El Triunfo,El Triunfo
El Veladero,El Veladero
El Vizcaíno,El Vizcaíno
General Juan Álvarez,General Juan Álvarez
Gogorrón,Gogorrón
Huatulco,Huatulco
Insurgente José María Morelos,José Ma. Morelos
Insurgente Miguel Hidalgo y Costilla,Miguel Hidalgo
Isla Contoy,Isla Contoy
Isla Guadalupe,Isla Guadalupe
Isla Isabel,Isla Isabel
Isla San Pedro Mártir,Isla San Pedro Mártir
Islas del Golfo de California,Islas del Golfo de California
Islas del Pacífico de la Península de Baja California,Islas del Pacífico Península BC
"Islas La Pajarera, Cocinas, Mamut, Colorada, San Pedro, San Agustín, San Andrés y Negrita y los Islotes Los Anegados, Novillas, Mosca y Submarino","Islas La Pajarera, Cocinas […]"
Islas Marías,Islas Marías
Islas Marietas,Islas Marietas
Iztaccíhuatl-Popocatépetl,Izta-Popo
Janos,Janos
Lacan-Tun,Lacan-Tun
La Encrucijada,La Encrucijada
Laguna de Términos,Laguna de Términos
Laguna Madre y Delta del Río Bravo,Laguna Madre […]
Lagunas de Chacahua,Lagunas de Chacahua
Lagunas de Montebello,Lagunas de Montebello
Lagunas de Zempoala,Lagunas de Zempoala
La Michilía,La Michilía
La Montaña Malinche o Matlalcuéyatl,La Montaña Malinche
"La porción norte y la franja costera oriental, terrestres y marinas de la Isla de Cozumel",Isla de Cozumel […]
La Primavera,La Primavera
La Sepultura,La Sepultura
Los Mármoles,Los Mármoles
Los Novillos,Los Novillos
Los Petenes,Los Petenes
Los Tuxtlas,Los Tuxtlas
Maderas del Carmen,Maderas del Carmen
Manglares de Nichupté,Manglares de Nichupté
Mapimí,Mapimí
Mariposa Monarca,Mariposa Monarca
Marismas Nacionales Nayarit,Marismas Nacionales
Médanos de Samalayuca,Médanos de Samalayuca
Meseta de Cacaxtla,Meseta de Cacaxtla
Metzabok,Metzabok
Montes Azules,Montes Azules
Nahá,Nahá
Nevado de Toluca,Nevado de Toluca
Ocampo,Ocampo
Otoch Ma'ax Yetel Kooh,Otoch Ma'ax Yetel Kooh
Palenque,Palenque
Pantanos de Centla,Pantanos de Centla
Papigochic,Papigochic
Pico de Orizaba,Pico de Orizaba
Pico de Tancítaro,Pico de Tancítaro
Playa adyacente a la localidad denominada Río Lagartos,Playa Río Lagartos
Playa Ceuta,Playa Ceuta
Playa Cuitzmala,Playa Cuitzmala
Playa de Escobilla,Playa de Escobilla
Playa de la Bahía de Chacahua,Playa de la Bahía de Chacahua
Playa de la Isla Contoy,Playa de la Isla Contoy
Playa de Maruata y Colola,Playa de Maruata y Colola
Playa de Mismaloya,Playa de Mismaloya
Playa de Puerto Arista,Playa de Puerto Arista
Playa de Tierra Colorada,Playa de Tierra Colorada
Playa El Verde Camacho,Playa El Verde Camacho
Playa Piedra de Tlacoyunque,Playa Piedra de Tlacoyunque
Playa Teopa,Playa Teopa
Revillagigedo,Revillagigedo
Ría Celestún,Ría Celestún
Ría Lagartos,Ría Lagartos
Río Bravo del Norte,Río Bravo del Norte
Sacromonte,Sacromonte
Selva El Ocote,Selva El Ocote
Sian Ka'an,Sian Ka'an
Sierra de Álamos-Río Cuchujaqui,Sierra Álamos - Cuchujaqui
Sierra de Álvarez,Sierra de Álvarez
Sierra de Huautla,Sierra de Huautla
Sierra del Abra Tanchipa,Sierra del Abra Tanchipa
Sierra de Manantlán,Sierra de Manantlán
Sierra de Órganos,Sierra de Órganos
Sierra de Quila,Sierra de Quila
Sierra de San Pedro Mártir,Sierra San Pedro Mártir
Sierra de Tamaulipas,Sierra de Tamaulipas
Sierra Gorda,Sierra Gorda
Sierra Gorda de Guanajuato,Sierra Gorda de Guanajuato
Sierra La Laguna,Sierra La Laguna
Sierra La Mojonera,Sierra La Mojonera
Sistema Arrecifal Veracruzano,Sistema Arrecifal Veracruzano
Tehuacán-Cuicatlán,Tehuacán-Cuicatlán
Tulum,Tulum
Tutuaca,Tutuaca
Uaymil,Uaymil
Valle de los Cirios,Valle de los Cirios
Volcán Nevado de Colima,Volcán Nevado de Colima
Volcán Tacaná,Volcán Tacaná
Yaxchilán,Yaxchilán
Yum Balam,Yum Balam
Zicuirán-Infiernillo,Zicuirán-Infiernillo
"Zona marina Bahía de los Ángeles, canales de Ballenas y de Salsipuedes",Zona marina Bahía de los Ángeles […]
"Z.P.F. en los terrenos que se encuentran en los mpios. de La Concordia, Ángel Albino Corzo, Villa Flores y Jiquipilas",ZPF en La Concordia […]
"Z.P.F.T.C.C. de los ríos Valle de Bravo, Malacatepec, Tilostoc y Temascaltepec",ZPFTCC Valle de Bravo […]
Z.P.F.V. la Cuenca Hidrográfica del Río Necaxa,ZPFV Río Necaxa
